%YAML 1.1
%TAG !u! tag:unity3d.com,2011:
--- !u!21 &-2460167098624881668
Material:
  serializedVersion: 6
  m_ObjectHideFlags: 1
  m_CorrespondingSourceObject: {fileID: 0}
  m_PrefabInstance: {fileID: 0}
  m_PrefabAsset: {fileID: 0}
  m_Name: TextMeshPro/Sprite
  m_Shader: {fileID: 4800000, guid: cf81c85f95fe47e1a27f6ae460cf182c, type: 3}
  m_ShaderKeywords: 
  m_LightmapFlags: 4
  m_EnableInstancingVariants: 0
  m_DoubleSidedGI: 0
  m_CustomRenderQueue: -1
  stringTagMap: {}
  disabledShaderPasses: []
  m_SavedProperties:
    serializedVersion: 3
    m_TexEnvs:
    - _MainTex:
        m_Texture: {fileID: 2800000, guid: 02c5548e21768a54e990f2013e733a8c, type: 3}
        m_Scale: {x: 1, y: 1}
        m_Offset: {x: 0, y: 0}
    m_Floats:
    - _ColorMask: 15
    - _CullMode: 0
    - _Stencil: 0
    - _StencilComp: 8
    - _StencilOp: 0
    - _StencilReadMask: 255
    - _StencilWriteMask: 255
    - _UseUIAlphaClip: 0
    m_Colors:
    - _ClipRect: {r: -32767, g: -32767, b: 32767, a: 32767}
    - _Color: {r: 1, g: 1, b: 1, a: 1}
  m_BuildTextureStacks: []
--- !u!114 &11400000
MonoBehaviour:
  m_ObjectHideFlags: 0
  m_CorrespondingSourceObject: {fileID: 0}
  m_PrefabInstance: {fileID: 0}
  m_PrefabAsset: {fileID: 0}
  m_GameObject: {fileID: 0}
  m_Enabled: 1
  m_EditorHideFlags: 0
  m_Script: {fileID: 11500000, guid: 84a92b25f83d49b9bc132d206b370281, type: 3}
  m_Name: TowerVision
  m_EditorClassIdentifier: 
  hashCode: -1442238842
  material: {fileID: -2460167098624881668}
  materialHashCode: 0
  m_Version: 1.1.0
  m_FaceInfo:
    m_FamilyName: 
    m_StyleName: 
    m_PointSize: 0
    m_Scale: 0
    m_LineHeight: 0
    m_AscentLine: 0
    m_CapLine: 0
    m_MeanLine: 0
    m_Baseline: 0
    m_DescentLine: 0
    m_SuperscriptOffset: 0
    m_SuperscriptSize: 0
    m_SubscriptOffset: 0
    m_SubscriptSize: 0
    m_UnderlineOffset: 0
    m_UnderlineThickness: 0
    m_StrikethroughOffset: 0
    m_StrikethroughThickness: 0
    m_TabWidth: 0
  spriteSheet: {fileID: 2800000, guid: 02c5548e21768a54e990f2013e733a8c, type: 3}
  m_SpriteCharacterTable:
  - m_ElementType: 2
    m_Unicode: 65534
    m_GlyphIndex: 0
    m_Scale: 1
    m_Name: ' '
    m_HashCode: 32
  - m_ElementType: 2
    m_Unicode: 65534
    m_GlyphIndex: 1
    m_Scale: 1
    m_Name: .
    m_HashCode: 46
  - m_ElementType: 2
    m_Unicode: 65534
    m_GlyphIndex: 2
    m_Scale: 1
    m_Name: '-'
    m_HashCode: 45
  - m_ElementType: 2
    m_Unicode: 65534
    m_GlyphIndex: 3
    m_Scale: 1
    m_Name: 0
    m_HashCode: 48
  - m_ElementType: 2
    m_Unicode: 65534
    m_GlyphIndex: 4
    m_Scale: 1
    m_Name: 1
    m_HashCode: 49
  - m_ElementType: 2
    m_Unicode: 65534
    m_GlyphIndex: 5
    m_Scale: 1
    m_Name: 2
    m_HashCode: 50
  - m_ElementType: 2
    m_Unicode: 65534
    m_GlyphIndex: 6
    m_Scale: 1
    m_Name: 3
    m_HashCode: 51
  - m_ElementType: 2
    m_Unicode: 65534
    m_GlyphIndex: 7
    m_Scale: 1
    m_Name: 4
    m_HashCode: 52
  - m_ElementType: 2
    m_Unicode: 65534
    m_GlyphIndex: 8
    m_Scale: 1
    m_Name: 5
    m_HashCode: 53
  - m_ElementType: 2
    m_Unicode: 65534
    m_GlyphIndex: 9
    m_Scale: 1
    m_Name: 6
    m_HashCode: 54
  - m_ElementType: 2
    m_Unicode: 65534
    m_GlyphIndex: 10
    m_Scale: 1
    m_Name: 7
    m_HashCode: 55
  - m_ElementType: 2
    m_Unicode: 65534
    m_GlyphIndex: 11
    m_Scale: 1
    m_Name: 8
    m_HashCode: 56
  - m_ElementType: 2
    m_Unicode: 65534
    m_GlyphIndex: 12
    m_Scale: 1
    m_Name: 9
    m_HashCode: 57
  - m_ElementType: 2
    m_Unicode: 65534
    m_GlyphIndex: 13
    m_Scale: 1
    m_Name: '!'
    m_HashCode: 33
  - m_ElementType: 2
    m_Unicode: 65534
    m_GlyphIndex: 14
    m_Scale: 1
    m_Name: '#'
    m_HashCode: 35
  - m_ElementType: 2
    m_Unicode: 65534
    m_GlyphIndex: 15
    m_Scale: 1
    m_Name: $
    m_HashCode: 36
  - m_ElementType: 2
    m_Unicode: 65534
    m_GlyphIndex: 16
    m_Scale: 1
    m_Name: '%'
    m_HashCode: 37
  - m_ElementType: 2
    m_Unicode: 65534
    m_GlyphIndex: 17
    m_Scale: 1
    m_Name: '&'
    m_HashCode: 38
  - m_ElementType: 2
    m_Unicode: 65534
    m_GlyphIndex: 18
    m_Scale: 1
    m_Name: (
    m_HashCode: 40
  - m_ElementType: 2
    m_Unicode: 65534
    m_GlyphIndex: 19
    m_Scale: 1
    m_Name: )
    m_HashCode: 41
  - m_ElementType: 2
    m_Unicode: 65534
    m_GlyphIndex: 20
    m_Scale: 1
    m_Name: ','
    m_HashCode: 44
  - m_ElementType: 2
    m_Unicode: 65534
    m_GlyphIndex: 21
    m_Scale: 1
    m_Name: ''''
    m_HashCode: 39
  - m_ElementType: 2
    m_Unicode: 65534
    m_GlyphIndex: 22
    m_Scale: 1
    m_Name: ;
    m_HashCode: 59
  - m_ElementType: 2
    m_Unicode: 65534
    m_GlyphIndex: 23
    m_Scale: 1
    m_Name: '@'
    m_HashCode: 64
  - m_ElementType: 2
    m_Unicode: 65534
    m_GlyphIndex: 24
    m_Scale: 1
    m_Name: '['
    m_HashCode: 91
  - m_ElementType: 2
    m_Unicode: 65534
    m_GlyphIndex: 25
    m_Scale: 1
    m_Name: ']'
    m_HashCode: 93
  - m_ElementType: 2
    m_Unicode: 65534
    m_GlyphIndex: 26
    m_Scale: 1
    m_Name: ^
    m_HashCode: 94
  - m_ElementType: 2
    m_Unicode: 65534
    m_GlyphIndex: 27
    m_Scale: 1
    m_Name: _
    m_HashCode: 95
  - m_ElementType: 2
    m_Unicode: 65534
    m_GlyphIndex: 28
    m_Scale: 1
    m_Name: '{'
    m_HashCode: 123
  - m_ElementType: 2
    m_Unicode: 65534
    m_GlyphIndex: 29
    m_Scale: 1
    m_Name: '}'
    m_HashCode: 125
  - m_ElementType: 2
    m_Unicode: 65534
    m_GlyphIndex: 30
    m_Scale: 1
    m_Name: "\xA3"
    m_HashCode: 163
  - m_ElementType: 2
    m_Unicode: 65534
    m_GlyphIndex: 31
    m_Scale: 1
    m_Name: +
    m_HashCode: 43
  - m_ElementType: 2
    m_Unicode: 65534
    m_GlyphIndex: 32
    m_Scale: 1
    m_Name: =
    m_HashCode: 61
  - m_ElementType: 2
    m_Unicode: 65534
    m_GlyphIndex: 33
    m_Scale: 1
    m_Name: a
    m_HashCode: 97
  - m_ElementType: 2
    m_Unicode: 65534
    m_GlyphIndex: 34
    m_Scale: 1
    m_Name: '*'
    m_HashCode: 42
  - m_ElementType: 2
    m_Unicode: 65534
    m_GlyphIndex: 35
    m_Scale: 1
    m_Name: b
    m_HashCode: 98
  - m_ElementType: 2
    m_Unicode: 65534
    m_GlyphIndex: 36
    m_Scale: 1
    m_Name: \
    m_HashCode: 92
  - m_ElementType: 2
    m_Unicode: 65534
    m_GlyphIndex: 37
    m_Scale: 1
    m_Name: c
    m_HashCode: 99
  - m_ElementType: 2
    m_Unicode: 65534
    m_GlyphIndex: 38
    m_Scale: 1
    m_Name: ':'
    m_HashCode: 58
  - m_ElementType: 2
    m_Unicode: 65534
    m_GlyphIndex: 39
    m_Scale: 1
    m_Name: d
    m_HashCode: 100
  - m_ElementType: 2
    m_Unicode: 65534
    m_GlyphIndex: 40
    m_Scale: 1
    m_Name: e
    m_HashCode: 101
  - m_ElementType: 2
    m_Unicode: 65534
    m_GlyphIndex: 41
    m_Scale: 1
    m_Name: f
    m_HashCode: 102
  - m_ElementType: 2
    m_Unicode: 65534
    m_GlyphIndex: 42
    m_Scale: 1
    m_Name: /
    m_HashCode: 47
  - m_ElementType: 2
    m_Unicode: 65534
    m_GlyphIndex: 43
    m_Scale: 1
    m_Name: g
    m_HashCode: 103
  - m_ElementType: 2
    m_Unicode: 65534
    m_GlyphIndex: 44
    m_Scale: 1
    m_Name: h
    m_HashCode: 104
  - m_ElementType: 2
    m_Unicode: 65534
    m_GlyphIndex: 45
    m_Scale: 1
    m_Name: i
    m_HashCode: 105
  - m_ElementType: 2
    m_Unicode: 65534
    m_GlyphIndex: 46
    m_Scale: 1
    m_Name: j
    m_HashCode: 106
  - m_ElementType: 2
    m_Unicode: 65534
    m_GlyphIndex: 47
    m_Scale: 1
    m_Name: k
    m_HashCode: 107
  - m_ElementType: 2
    m_Unicode: 65534
    m_GlyphIndex: 48
    m_Scale: 1
    m_Name: l
    m_HashCode: 108
  - m_ElementType: 2
    m_Unicode: 65534
    m_GlyphIndex: 49
    m_Scale: 1
    m_Name: <
    m_HashCode: 60
  - m_ElementType: 2
    m_Unicode: 65534
    m_GlyphIndex: 50
    m_Scale: 1
    m_Name: m
    m_HashCode: 109
  - m_ElementType: 2
    m_Unicode: 65534
    m_GlyphIndex: 51
    m_Scale: 1
    m_Name: '>'
    m_HashCode: 62
  - m_ElementType: 2
    m_Unicode: 65534
    m_GlyphIndex: 52
    m_Scale: 1
    m_Name: n
    m_HashCode: 110
  - m_ElementType: 2
    m_Unicode: 65534
    m_GlyphIndex: 53
    m_Scale: 1
    m_Name: o
    m_HashCode: 111
  - m_ElementType: 2
    m_Unicode: 65534
    m_GlyphIndex: 54
    m_Scale: 1
    m_Name: p
    m_HashCode: 112
  - m_ElementType: 2
    m_Unicode: 65534
    m_GlyphIndex: 55
    m_Scale: 1
    m_Name: q
    m_HashCode: 113
  - m_ElementType: 2
    m_Unicode: 65534
    m_GlyphIndex: 56
    m_Scale: 1
    m_Name: '?'
    m_HashCode: 63
  - m_ElementType: 2
    m_Unicode: 65534
    m_GlyphIndex: 57
    m_Scale: 1
    m_Name: '"'
    m_HashCode: 34
  - m_ElementType: 2
    m_Unicode: 65534
    m_GlyphIndex: 58
    m_Scale: 1
    m_Name: r
    m_HashCode: 114
  - m_ElementType: 2
    m_Unicode: 65534
    m_GlyphIndex: 59
    m_Scale: 1
    m_Name: s
    m_HashCode: 115
  - m_ElementType: 2
    m_Unicode: 65534
    m_GlyphIndex: 60
    m_Scale: 1
    m_Name: t
    m_HashCode: 116
  - m_ElementType: 2
    m_Unicode: 65534
    m_GlyphIndex: 61
    m_Scale: 1
    m_Name: u
    m_HashCode: 117
  - m_ElementType: 2
    m_Unicode: 65534
    m_GlyphIndex: 62
    m_Scale: 1
    m_Name: v
    m_HashCode: 118
  - m_ElementType: 2
    m_Unicode: 65534
    m_GlyphIndex: 63
    m_Scale: 1
    m_Name: w
    m_HashCode: 119
  - m_ElementType: 2
    m_Unicode: 65534
    m_GlyphIndex: 64
    m_Scale: 1
    m_Name: x
    m_HashCode: 120
  - m_ElementType: 2
    m_Unicode: 65534
    m_GlyphIndex: 65
    m_Scale: 1
    m_Name: y
    m_HashCode: 121
  - m_ElementType: 2
    m_Unicode: 65534
    m_GlyphIndex: 66
    m_Scale: 1
    m_Name: z
    m_HashCode: 122
  m_SpriteGlyphTable:
  - m_Index: 0
    m_Metrics:
      m_Width: 80
      m_Height: 80
      m_HorizontalBearingX: -0
      m_HorizontalBearingY: 63
      m_HorizontalAdvance: 80
    m_GlyphRect:
      m_X: 0
      m_Y: 560
      m_Width: 80
      m_Height: 80
    m_Scale: 1
    m_AtlasIndex: 0
    sprite: {fileID: 0}
  - m_Index: 1
    m_Metrics:
      m_Width: 80
      m_Height: 80
      m_HorizontalBearingX: -0
      m_HorizontalBearingY: 40.88
      m_HorizontalAdvance: 80
    m_GlyphRect:
      m_X: 80
      m_Y: 560
      m_Width: 80
      m_Height: 80
    m_Scale: 1
    m_AtlasIndex: 0
    sprite: {fileID: 0}
  - m_Index: 2
    m_Metrics:
      m_Width: 80
      m_Height: 80
      m_HorizontalBearingX: -0
      m_HorizontalBearingY: 63
      m_HorizontalAdvance: 80
    m_GlyphRect:
      m_X: 160
      m_Y: 560
      m_Width: 80
      m_Height: 80
    m_Scale: 1
    m_AtlasIndex: 0
    sprite: {fileID: 0}
  - m_Index: 3
    m_Metrics:
      m_Width: 80
      m_Height: 80
      m_HorizontalBearingX: -0
      m_HorizontalBearingY: 63
      m_HorizontalAdvance: 80
    m_GlyphRect:
      m_X: 240
      m_Y: 560
      m_Width: 80
      m_Height: 80
    m_Scale: 1
    m_AtlasIndex: 0
    sprite: {fileID: 0}
  - m_Index: 4
    m_Metrics:
      m_Width: 80
      m_Height: 80
      m_HorizontalBearingX: -0
      m_HorizontalBearingY: 63
      m_HorizontalAdvance: 80
    m_GlyphRect:
      m_X: 320
      m_Y: 560
      m_Width: 80
      m_Height: 80
    m_Scale: 1
    m_AtlasIndex: 0
    sprite: {fileID: 0}
  - m_Index: 5
    m_Metrics:
      m_Width: 80
      m_Height: 80
      m_HorizontalBearingX: -0
      m_HorizontalBearingY: 63
      m_HorizontalAdvance: 80
    m_GlyphRect:
      m_X: 400
      m_Y: 560
      m_Width: 80
      m_Height: 80
    m_Scale: 1
    m_AtlasIndex: 0
    sprite: {fileID: 0}
  - m_Index: 6
    m_Metrics:
      m_Width: 80
      m_Height: 80
      m_HorizontalBearingX: -0
      m_HorizontalBearingY: 63
      m_HorizontalAdvance: 80
    m_GlyphRect:
      m_X: 480
      m_Y: 560
      m_Width: 80
      m_Height: 80
    m_Scale: 1
    m_AtlasIndex: 0
    sprite: {fileID: 0}
  - m_Index: 7
    m_Metrics:
      m_Width: 80
      m_Height: 80
      m_HorizontalBearingX: -0
      m_HorizontalBearingY: 63
      m_HorizontalAdvance: 80
    m_GlyphRect:
      m_X: 560
      m_Y: 560
      m_Width: 80
      m_Height: 80
    m_Scale: 1
    m_AtlasIndex: 0
    sprite: {fileID: 0}
  - m_Index: 8
    m_Metrics:
      m_Width: 80
      m_Height: 80
      m_HorizontalBearingX: -0
      m_HorizontalBearingY: 63
      m_HorizontalAdvance: 80
    m_GlyphRect:
      m_X: 0
      m_Y: 480
      m_Width: 80
      m_Height: 80
    m_Scale: 1
    m_AtlasIndex: 0
    sprite: {fileID: 0}
  - m_Index: 9
    m_Metrics:
      m_Width: 80
      m_Height: 80
      m_HorizontalBearingX: -0
      m_HorizontalBearingY: 63
      m_HorizontalAdvance: 80
    m_GlyphRect:
      m_X: 80
      m_Y: 480
      m_Width: 80
      m_Height: 80
    m_Scale: 1
    m_AtlasIndex: 0
    sprite: {fileID: 0}
  - m_Index: 10
    m_Metrics:
      m_Width: 80
      m_Height: 80
      m_HorizontalBearingX: -0
      m_HorizontalBearingY: 63
      m_HorizontalAdvance: 80
    m_GlyphRect:
      m_X: 160
      m_Y: 480
      m_Width: 80
      m_Height: 80
    m_Scale: 1
    m_AtlasIndex: 0
    sprite: {fileID: 0}
  - m_Index: 11
    m_Metrics:
      m_Width: 80
      m_Height: 80
      m_HorizontalBearingX: -0
      m_HorizontalBearingY: 63
      m_HorizontalAdvance: 80
    m_GlyphRect:
      m_X: 240
      m_Y: 480
      m_Width: 80
      m_Height: 80
    m_Scale: 1
    m_AtlasIndex: 0
    sprite: {fileID: 0}
  - m_Index: 12
    m_Metrics:
      m_Width: 80
      m_Height: 80
      m_HorizontalBearingX: -0
      m_HorizontalBearingY: 63
      m_HorizontalAdvance: 80
    m_GlyphRect:
      m_X: 320
      m_Y: 480
      m_Width: 80
      m_Height: 80
    m_Scale: 1
    m_AtlasIndex: 0
    sprite: {fileID: 0}
  - m_Index: 13
    m_Metrics:
      m_Width: 80
      m_Height: 80
      m_HorizontalBearingX: -0
      m_HorizontalBearingY: 63
      m_HorizontalAdvance: 80
    m_GlyphRect:
      m_X: 400
      m_Y: 480
      m_Width: 80
      m_Height: 80
    m_Scale: 1
    m_AtlasIndex: 0
    sprite: {fileID: 0}
  - m_Index: 14
    m_Metrics:
      m_Width: 80
      m_Height: 80
      m_HorizontalBearingX: -0
      m_HorizontalBearingY: 63
      m_HorizontalAdvance: 80
    m_GlyphRect:
      m_X: 480
      m_Y: 480
      m_Width: 80
      m_Height: 80
    m_Scale: 1
    m_AtlasIndex: 0
    sprite: {fileID: 0}
  - m_Index: 15
    m_Metrics:
      m_Width: 80
      m_Height: 80
      m_HorizontalBearingX: -0
      m_HorizontalBearingY: 63
      m_HorizontalAdvance: 80
    m_GlyphRect:
      m_X: 560
      m_Y: 480
      m_Width: 80
      m_Height: 80
    m_Scale: 1
    m_AtlasIndex: 0
    sprite: {fileID: 0}
  - m_Index: 16
    m_Metrics:
      m_Width: 80
      m_Height: 80
      m_HorizontalBearingX: -0
      m_HorizontalBearingY: 63
      m_HorizontalAdvance: 80
    m_GlyphRect:
      m_X: 0
      m_Y: 400
      m_Width: 80
      m_Height: 80
    m_Scale: 1
    m_AtlasIndex: 0
    sprite: {fileID: 0}
  - m_Index: 17
    m_Metrics:
      m_Width: 80
      m_Height: 80
      m_HorizontalBearingX: -0
      m_HorizontalBearingY: 63
      m_HorizontalAdvance: 80
    m_GlyphRect:
      m_X: 80
      m_Y: 400
      m_Width: 80
      m_Height: 80
    m_Scale: 1
    m_AtlasIndex: 0
    sprite: {fileID: 0}
  - m_Index: 18
    m_Metrics:
      m_Width: 80
      m_Height: 80
      m_HorizontalBearingX: -0
      m_HorizontalBearingY: 63
      m_HorizontalAdvance: 80
    m_GlyphRect:
      m_X: 160
      m_Y: 400
      m_Width: 80
      m_Height: 80
    m_Scale: 1
    m_AtlasIndex: 0
    sprite: {fileID: 0}
  - m_Index: 19
    m_Metrics:
      m_Width: 80
      m_Height: 80
      m_HorizontalBearingX: -0
      m_HorizontalBearingY: 63
      m_HorizontalAdvance: 80
    m_GlyphRect:
      m_X: 240
      m_Y: 400
      m_Width: 80
      m_Height: 80
    m_Scale: 1
    m_AtlasIndex: 0
    sprite: {fileID: 0}
  - m_Index: 20
    m_Metrics:
      m_Width: 80
      m_Height: 80
      m_HorizontalBearingX: -0
      m_HorizontalBearingY: 36.33
      m_HorizontalAdvance: 80
    m_GlyphRect:
      m_X: 320
      m_Y: 400
      m_Width: 80
      m_Height: 80
    m_Scale: 1
    m_AtlasIndex: 0
    sprite: {fileID: 0}
  - m_Index: 21
    m_Metrics:
      m_Width: 80
      m_Height: 80
      m_HorizontalBearingX: -0
      m_HorizontalBearingY: 94.8
      m_HorizontalAdvance: 80
    m_GlyphRect:
      m_X: 400
      m_Y: 400
      m_Width: 80
      m_Height: 80
    m_Scale: 1
    m_AtlasIndex: 0
    sprite: {fileID: 0}
  - m_Index: 22
    m_Metrics:
      m_Width: 80
      m_Height: 80
      m_HorizontalBearingX: -0
      m_HorizontalBearingY: 63
      m_HorizontalAdvance: 80
    m_GlyphRect:
      m_X: 480
      m_Y: 400
      m_Width: 80
      m_Height: 80
    m_Scale: 1
    m_AtlasIndex: 0
    sprite: {fileID: 0}
  - m_Index: 23
    m_Metrics:
      m_Width: 80
      m_Height: 80
      m_HorizontalBearingX: -0
      m_HorizontalBearingY: 63
      m_HorizontalAdvance: 80
    m_GlyphRect:
      m_X: 560
      m_Y: 400
      m_Width: 80
      m_Height: 80
    m_Scale: 1
    m_AtlasIndex: 0
    sprite: {fileID: 0}
  - m_Index: 24
    m_Metrics:
      m_Width: 80
      m_Height: 80
      m_HorizontalBearingX: -0
      m_HorizontalBearingY: 63
      m_HorizontalAdvance: 80
    m_GlyphRect:
      m_X: 0
      m_Y: 320
      m_Width: 80
      m_Height: 80
    m_Scale: 1
    m_AtlasIndex: 0
    sprite: {fileID: 0}
  - m_Index: 25
    m_Metrics:
      m_Width: 80
      m_Height: 80
      m_HorizontalBearingX: -0
      m_HorizontalBearingY: 63
      m_HorizontalAdvance: 80
    m_GlyphRect:
      m_X: 80
      m_Y: 320
      m_Width: 80
      m_Height: 80
    m_Scale: 1
    m_AtlasIndex: 0
    sprite: {fileID: 0}
  - m_Index: 26
    m_Metrics:
      m_Width: 80
      m_Height: 80
      m_HorizontalBearingX: -0
      m_HorizontalBearingY: 63
      m_HorizontalAdvance: 80
    m_GlyphRect:
      m_X: 160
      m_Y: 320
      m_Width: 80
      m_Height: 80
    m_Scale: 1
    m_AtlasIndex: 0
    sprite: {fileID: 0}
  - m_Index: 27
    m_Metrics:
      m_Width: 80
      m_Height: 80
      m_HorizontalBearingX: -0
      m_HorizontalBearingY: 63
      m_HorizontalAdvance: 80
    m_GlyphRect:
      m_X: 240
      m_Y: 320
      m_Width: 80
      m_Height: 80
    m_Scale: 1
    m_AtlasIndex: 0
    sprite: {fileID: 0}
  - m_Index: 28
    m_Metrics:
      m_Width: 80
      m_Height: 80
      m_HorizontalBearingX: -0
      m_HorizontalBearingY: 63
      m_HorizontalAdvance: 80
    m_GlyphRect:
      m_X: 320
      m_Y: 320
      m_Width: 80
      m_Height: 80
    m_Scale: 1
    m_AtlasIndex: 0
    sprite: {fileID: 0}
  - m_Index: 29
    m_Metrics:
      m_Width: 80
      m_Height: 80
      m_HorizontalBearingX: -0
      m_HorizontalBearingY: 63
      m_HorizontalAdvance: 80
    m_GlyphRect:
      m_X: 400
      m_Y: 320
      m_Width: 80
      m_Height: 80
    m_Scale: 1
    m_AtlasIndex: 0
    sprite: {fileID: 0}
  - m_Index: 30
    m_Metrics:
      m_Width: 80
      m_Height: 80
      m_HorizontalBearingX: -0
      m_HorizontalBearingY: 63
      m_HorizontalAdvance: 80
    m_GlyphRect:
      m_X: 480
      m_Y: 320
      m_Width: 80
      m_Height: 80
    m_Scale: 1
    m_AtlasIndex: 0
    sprite: {fileID: 0}
  - m_Index: 31
    m_Metrics:
      m_Width: 80
      m_Height: 80
      m_HorizontalBearingX: -0
      m_HorizontalBearingY: 63
      m_HorizontalAdvance: 80
    m_GlyphRect:
      m_X: 560
      m_Y: 320
      m_Width: 80
      m_Height: 80
    m_Scale: 1
    m_AtlasIndex: 0
    sprite: {fileID: 0}
  - m_Index: 32
    m_Metrics:
      m_Width: 80
      m_Height: 80
      m_HorizontalBearingX: -0
      m_HorizontalBearingY: 63
      m_HorizontalAdvance: 80
    m_GlyphRect:
      m_X: 0
      m_Y: 240
      m_Width: 80
      m_Height: 80
    m_Scale: 1
    m_AtlasIndex: 0
    sprite: {fileID: 0}
  - m_Index: 33
    m_Metrics:
      m_Width: 80
      m_Height: 80
      m_HorizontalBearingX: -0
      m_HorizontalBearingY: 63
      m_HorizontalAdvance: 80
    m_GlyphRect:
      m_X: 80
      m_Y: 240
      m_Width: 80
      m_Height: 80
    m_Scale: 1
    m_AtlasIndex: 0
    sprite: {fileID: 0}
  - m_Index: 34
    m_Metrics:
      m_Width: 80
      m_Height: 80
      m_HorizontalBearingX: -0
      m_HorizontalBearingY: 63
      m_HorizontalAdvance: 80
    m_GlyphRect:
      m_X: 160
      m_Y: 240
      m_Width: 80
      m_Height: 80
    m_Scale: 1
    m_AtlasIndex: 0
    sprite: {fileID: 0}
  - m_Index: 35
    m_Metrics:
      m_Width: 80
      m_Height: 80
      m_HorizontalBearingX: -0
      m_HorizontalBearingY: 63
      m_HorizontalAdvance: 80
    m_GlyphRect:
      m_X: 240
      m_Y: 240
      m_Width: 80
      m_Height: 80
    m_Scale: 1
    m_AtlasIndex: 0
    sprite: {fileID: 0}
  - m_Index: 36
    m_Metrics:
      m_Width: 80
      m_Height: 80
      m_HorizontalBearingX: -0
      m_HorizontalBearingY: 63
      m_HorizontalAdvance: 80
    m_GlyphRect:
      m_X: 320
      m_Y: 240
      m_Width: 80
      m_Height: 80
    m_Scale: 1
    m_AtlasIndex: 0
    sprite: {fileID: 0}
  - m_Index: 37
    m_Metrics:
      m_Width: 80
      m_Height: 80
      m_HorizontalBearingX: -0
      m_HorizontalBearingY: 63
      m_HorizontalAdvance: 80
    m_GlyphRect:
      m_X: 400
      m_Y: 240
      m_Width: 80
      m_Height: 80
    m_Scale: 1
    m_AtlasIndex: 0
    sprite: {fileID: 0}
  - m_Index: 38
    m_Metrics:
      m_Width: 80
      m_Height: 80
      m_HorizontalBearingX: -0
      m_HorizontalBearingY: 63
      m_HorizontalAdvance: 80
    m_GlyphRect:
      m_X: 480
      m_Y: 240
      m_Width: 80
      m_Height: 80
    m_Scale: 1
    m_AtlasIndex: 0
    sprite: {fileID: 0}
  - m_Index: 39
    m_Metrics:
      m_Width: 80
      m_Height: 80
      m_HorizontalBearingX: -0
      m_HorizontalBearingY: 63
      m_HorizontalAdvance: 80
    m_GlyphRect:
      m_X: 560
      m_Y: 240
      m_Width: 80
      m_Height: 80
    m_Scale: 1
    m_AtlasIndex: 0
    sprite: {fileID: 0}
  - m_Index: 40
    m_Metrics:
      m_Width: 80
      m_Height: 80
      m_HorizontalBearingX: -0
      m_HorizontalBearingY: 63
      m_HorizontalAdvance: 80
    m_GlyphRect:
      m_X: 0
      m_Y: 160
      m_Width: 80
      m_Height: 80
    m_Scale: 1
    m_AtlasIndex: 0
    sprite: {fileID: 0}
  - m_Index: 41
    m_Metrics:
      m_Width: 80
      m_Height: 80
      m_HorizontalBearingX: -0
      m_HorizontalBearingY: 63
      m_HorizontalAdvance: 80
    m_GlyphRect:
      m_X: 80
      m_Y: 160
      m_Width: 80
      m_Height: 80
    m_Scale: 1
    m_AtlasIndex: 0
    sprite: {fileID: 0}
  - m_Index: 42
    m_Metrics:
      m_Width: 80
      m_Height: 80
      m_HorizontalBearingX: -0
      m_HorizontalBearingY: 63
      m_HorizontalAdvance: 80
    m_GlyphRect:
      m_X: 160
      m_Y: 160
      m_Width: 80
      m_Height: 80
    m_Scale: 1
    m_AtlasIndex: 0
    sprite: {fileID: 0}
  - m_Index: 43
    m_Metrics:
      m_Width: 80
      m_Height: 80
      m_HorizontalBearingX: -0
      m_HorizontalBearingY: 63
      m_HorizontalAdvance: 80
    m_GlyphRect:
      m_X: 240
      m_Y: 160
      m_Width: 80
      m_Height: 80
    m_Scale: 1
    m_AtlasIndex: 0
    sprite: {fileID: 0}
  - m_Index: 44
    m_Metrics:
      m_Width: 80
      m_Height: 80
      m_HorizontalBearingX: -0
      m_HorizontalBearingY: 63
      m_HorizontalAdvance: 80
    m_GlyphRect:
      m_X: 320
      m_Y: 160
      m_Width: 80
      m_Height: 80
    m_Scale: 1
    m_AtlasIndex: 0
    sprite: {fileID: 0}
  - m_Index: 45
    m_Metrics:
      m_Width: 80
      m_Height: 80
      m_HorizontalBearingX: -0
      m_HorizontalBearingY: 63
      m_HorizontalAdvance: 80
    m_GlyphRect:
      m_X: 400
      m_Y: 160
      m_Width: 80
      m_Height: 80
    m_Scale: 1
    m_AtlasIndex: 0
    sprite: {fileID: 0}
  - m_Index: 46
    m_Metrics:
      m_Width: 80
      m_Height: 80
      m_HorizontalBearingX: -0
      m_HorizontalBearingY: 63
      m_HorizontalAdvance: 80
    m_GlyphRect:
      m_X: 480
      m_Y: 160
      m_Width: 80
      m_Height: 80
    m_Scale: 1
    m_AtlasIndex: 0
    sprite: {fileID: 0}
  - m_Index: 47
    m_Metrics:
      m_Width: 80
      m_Height: 80
      m_HorizontalBearingX: -0
      m_HorizontalBearingY: 63
      m_HorizontalAdvance: 80
    m_GlyphRect:
      m_X: 560
      m_Y: 160
      m_Width: 80
      m_Height: 80
    m_Scale: 1
    m_AtlasIndex: 0
    sprite: {fileID: 0}
  - m_Index: 48
    m_Metrics:
      m_Width: 80
      m_Height: 80
      m_HorizontalBearingX: -0
      m_HorizontalBearingY: 63
      m_HorizontalAdvance: 80
    m_GlyphRect:
      m_X: 0
      m_Y: 80
      m_Width: 80
      m_Height: 80
    m_Scale: 1
    m_AtlasIndex: 0
    sprite: {fileID: 0}
  - m_Index: 49
    m_Metrics:
      m_Width: 80
      m_Height: 80
      m_HorizontalBearingX: -0
      m_HorizontalBearingY: 63
      m_HorizontalAdvance: 80
    m_GlyphRect:
      m_X: 80
      m_Y: 80
      m_Width: 80
      m_Height: 80
    m_Scale: 1
    m_AtlasIndex: 0
    sprite: {fileID: 0}
  - m_Index: 50
    m_Metrics:
      m_Width: 80
      m_Height: 80
      m_HorizontalBearingX: -0
      m_HorizontalBearingY: 63
      m_HorizontalAdvance: 80
    m_GlyphRect:
      m_X: 160
      m_Y: 80
      m_Width: 80
      m_Height: 80
    m_Scale: 1
    m_AtlasIndex: 0
    sprite: {fileID: 0}
  - m_Index: 51
    m_Metrics:
      m_Width: 80
      m_Height: 80
      m_HorizontalBearingX: -0
      m_HorizontalBearingY: 63
      m_HorizontalAdvance: 80
    m_GlyphRect:
      m_X: 240
      m_Y: 80
      m_Width: 80
      m_Height: 80
    m_Scale: 1
    m_AtlasIndex: 0
    sprite: {fileID: 0}
  - m_Index: 52
    m_Metrics:
      m_Width: 80
      m_Height: 80
      m_HorizontalBearingX: -0
      m_HorizontalBearingY: 63
      m_HorizontalAdvance: 80
    m_GlyphRect:
      m_X: 320
      m_Y: 80
      m_Width: 80
      m_Height: 80
    m_Scale: 1
    m_AtlasIndex: 0
    sprite: {fileID: 0}
  - m_Index: 53
    m_Metrics:
      m_Width: 80
      m_Height: 80
      m_HorizontalBearingX: -0
      m_HorizontalBearingY: 63
      m_HorizontalAdvance: 80
    m_GlyphRect:
      m_X: 400
      m_Y: 80
      m_Width: 80
      m_Height: 80
    m_Scale: 1
    m_AtlasIndex: 0
    sprite: {fileID: 0}
  - m_Index: 54
    m_Metrics:
      m_Width: 80
      m_Height: 80
      m_HorizontalBearingX: -0
      m_HorizontalBearingY: 63
      m_HorizontalAdvance: 80
    m_GlyphRect:
      m_X: 480
      m_Y: 80
      m_Width: 80
      m_Height: 80
    m_Scale: 1
    m_AtlasIndex: 0
    sprite: {fileID: 0}
  - m_Index: 55
    m_Metrics:
      m_Width: 80
      m_Height: 80
      m_HorizontalBearingX: -0
      m_HorizontalBearingY: 63
      m_HorizontalAdvance: 80
    m_GlyphRect:
      m_X: 560
      m_Y: 80
      m_Width: 80
      m_Height: 80
    m_Scale: 1
    m_AtlasIndex: 0
    sprite: {fileID: 0}
  - m_Index: 56
    m_Metrics:
      m_Width: 80
      m_Height: 80
      m_HorizontalBearingX: -0
      m_HorizontalBearingY: 63
      m_HorizontalAdvance: 80
    m_GlyphRect:
      m_X: 0
      m_Y: 0
      m_Width: 80
      m_Height: 80
    m_Scale: 1
    m_AtlasIndex: 0
    sprite: {fileID: 0}
  - m_Index: 57
    m_Metrics:
      m_Width: 80
      m_Height: 80
      m_HorizontalBearingX: -0
      m_HorizontalBearingY: 63
      m_HorizontalAdvance: 80
    m_GlyphRect:
      m_X: 80
      m_Y: 0
      m_Width: 80
      m_Height: 80
    m_Scale: 1
    m_AtlasIndex: 0
    sprite: {fileID: 0}
  - m_Index: 58
    m_Metrics:
      m_Width: 80
      m_Height: 80
      m_HorizontalBearingX: -0
      m_HorizontalBearingY: 63
      m_HorizontalAdvance: 80
    m_GlyphRect:
      m_X: 160
      m_Y: 0
      m_Width: 80
      m_Height: 80
    m_Scale: 1
    m_AtlasIndex: 0
    sprite: {fileID: 0}
  - m_Index: 59
    m_Metrics:
      m_Width: 80
      m_Height: 80
      m_HorizontalBearingX: -0
      m_HorizontalBearingY: 63
      m_HorizontalAdvance: 80
    m_GlyphRect:
      m_X: 240
      m_Y: 0
      m_Width: 80
      m_Height: 80
    m_Scale: 1
    m_AtlasIndex: 0
    sprite: {fileID: 0}
  - m_Index: 60
    m_Metrics:
      m_Width: 80
      m_Height: 80
      m_HorizontalBearingX: -0
      m_HorizontalBearingY: 63
      m_HorizontalAdvance: 80
    m_GlyphRect:
      m_X: 320
      m_Y: 0
      m_Width: 80
      m_Height: 80
    m_Scale: 1
    m_AtlasIndex: 0
    sprite: {fileID: 0}
  - m_Index: 61
    m_Metrics:
      m_Width: 80
      m_Height: 80
      m_HorizontalBearingX: -0
      m_HorizontalBearingY: 63
      m_HorizontalAdvance: 80
    m_GlyphRect:
      m_X: 400
      m_Y: 0
      m_Width: 80
      m_Height: 80
    m_Scale: 1
    m_AtlasIndex: 0
    sprite: {fileID: 0}
  - m_Index: 62
    m_Metrics:
      m_Width: 80
      m_Height: 80
      m_HorizontalBearingX: -0
      m_HorizontalBearingY: 63
      m_HorizontalAdvance: 80
    m_GlyphRect:
      m_X: 480
      m_Y: 0
      m_Width: 80
      m_Height: 80
    m_Scale: 1
    m_AtlasIndex: 0
    sprite: {fileID: 0}
  - m_Index: 63
    m_Metrics:
      m_Width: 80
      m_Height: 80
      m_HorizontalBearingX: -0
      m_HorizontalBearingY: 63
      m_HorizontalAdvance: 80
    m_GlyphRect:
      m_X: 560
      m_Y: 0
      m_Width: 80
      m_Height: 80
    m_Scale: 1
    m_AtlasIndex: 0
    sprite: {fileID: 0}
  - m_Index: 64
    m_Metrics:
      m_Width: 80
      m_Height: 80
      m_HorizontalBearingX: -0
      m_HorizontalBearingY: 63
      m_HorizontalAdvance: 80
    m_GlyphRect:
      m_X: 640
      m_Y: 560
      m_Width: 80
      m_Height: 80
    m_Scale: 1
    m_AtlasIndex: 0
    sprite: {fileID: 0}
  - m_Index: 65
    m_Metrics:
      m_Width: 80
      m_Height: 80
      m_HorizontalBearingX: -0
      m_HorizontalBearingY: 63
      m_HorizontalAdvance: 80
    m_GlyphRect:
      m_X: 640
      m_Y: 480
      m_Width: 80
      m_Height: 80
    m_Scale: 1
    m_AtlasIndex: 0
    sprite: {fileID: 0}
  - m_Index: 66
    m_Metrics:
      m_Width: 80
      m_Height: 80
      m_HorizontalBearingX: -0
      m_HorizontalBearingY: 63
      m_HorizontalAdvance: 80
    m_GlyphRect:
      m_X: 640
      m_Y: 400
      m_Width: 80
      m_Height: 80
    m_Scale: 1
    m_AtlasIndex: 0
    sprite: {fileID: 0}
  spriteInfoList: []
  fallbackSpriteAssets: []
