%YAML 1.1
%TAG !u! tag:unity3d.com,2011:
--- !u!1045 &1
EditorBuildSettings:
  m_ObjectHideFlags: 0
  serializedVersion: 2
  m_Scenes:
  - enabled: 1
    path: Assets/Not Resources/Scenes/MainMenu.unity
    guid: c6d591194fc2b204a8038edbcc4ad4c0
  - enabled: 1
    path: Assets/Not Resources/Scenes/LevelArea.unity
    guid: 9fc0d4010bbf28b4594072e72b8655ab
  - enabled: 1
    path: Assets/Not Resources/Scenes/LevelEditor.unity
    guid: 0c65c104b3f5c614d8c256d4f88fc27d
  - enabled: 1
    path: Assets/Not Resources/Scenes/Story.unity
    guid: 458a5bffa9f746c4694eb12c627ecbbd
  m_configObjects: {}
