%YAML 1.1
%TAG !u! tag:unity3d.com,2011:
--- !u!1 &6810942964149555663
GameObject:
  m_ObjectHideFlags: 0
  m_CorrespondingSourceObject: {fileID: 0}
  m_PrefabInstance: {fileID: 0}
  m_PrefabAsset: {fileID: 0}
  serializedVersion: 6
  m_Component:
  - component: {fileID: 6810942964149555651}
  - component: {fileID: 6810942964149555648}
  - component: {fileID: 3619230435344200324}
  - component: {fileID: -600296854459182213}
  m_Layer: 10
  m_Name: tower_medic
  m_TagString: Untagged
  m_Icon: {fileID: 0}
  m_NavMeshLayer: 0
  m_StaticEditorFlags: 0
  m_IsActive: 1
--- !u!4 &6810942964149555651
Transform:
  m_ObjectHideFlags: 0
  m_CorrespondingSourceObject: {fileID: 0}
  m_PrefabInstance: {fileID: 0}
  m_PrefabAsset: {fileID: 0}
  m_GameObject: {fileID: 6810942964149555663}
  m_LocalRotation: {x: 0, y: 0, z: 0, w: 1}
  m_LocalPosition: {x: -3.53, y: 0, z: 3.94}
  m_LocalScale: {x: 1, y: 1, z: 1}
  m_Children: []
  m_Father: {fileID: 0}
  m_RootOrder: 0
  m_LocalEulerAnglesHint: {x: 0, y: 0, z: 0}
--- !u!114 &6810942964149555648
MonoBehaviour:
  m_ObjectHideFlags: 0
  m_CorrespondingSourceObject: {fileID: 0}
  m_PrefabInstance: {fileID: 0}
  m_PrefabAsset: {fileID: 0}
  m_GameObject: {fileID: 6810942964149555663}
  m_Enabled: 1
  m_EditorHideFlags: 0
  m_Script: {fileID: 11500000, guid: 3c0e7543636877540b93e11cec100716, type: 3}
  m_Name: 
  m_EditorClassIdentifier: 
  resultingAngleIndex: 0
  animations:
  - name: idle
    frames:
    - angles:
      - {fileID: 2800000, guid: ba1000a5280dbe5409617c7190cc8585, type: 3}
      - {fileID: 2800000, guid: 52afbdf1a76599f4fb9d056b97d55a36, type: 3}
      - {fileID: 2800000, guid: 52b380b4c6d541e4e8010d3977e4ed82, type: 3}
      - {fileID: 2800000, guid: d60c9e714f566074b84b46b582647bb3, type: 3}
      - {fileID: 2800000, guid: 57a5f2c9876619a429654dcd9a1a0999, type: 3}
      - {fileID: 2800000, guid: 5acfd54a9247ea84d94e5f97eaea5499, type: 3}
      - {fileID: 2800000, guid: cae6594e9dea6ce41b150e87d4b73256, type: 3}
      - {fileID: 2800000, guid: 04effdd437a463247ac344a15d4a7ce9, type: 3}
    goToAnim_destination: 
    animType: 1
    playbackRate: 1
    frameIndex: 0
    nextFrameTimer: 0
    angleIndex: 0
  - name: open
    frames:
    - angles:
      - {fileID: 2800000, guid: ba1000a5280dbe5409617c7190cc8585, type: 3}
      - {fileID: 2800000, guid: 52afbdf1a76599f4fb9d056b97d55a36, type: 3}
      - {fileID: 2800000, guid: 52b380b4c6d541e4e8010d3977e4ed82, type: 3}
      - {fileID: 2800000, guid: d60c9e714f566074b84b46b582647bb3, type: 3}
      - {fileID: 2800000, guid: 57a5f2c9876619a429654dcd9a1a0999, type: 3}
      - {fileID: 2800000, guid: 5acfd54a9247ea84d94e5f97eaea5499, type: 3}
      - {fileID: 2800000, guid: cae6594e9dea6ce41b150e87d4b73256, type: 3}
      - {fileID: 2800000, guid: 04effdd437a463247ac344a15d4a7ce9, type: 3}
    - angles:
      - {fileID: 2800000, guid: 99a34adf60552494aa6be14676d2be7d, type: 3}
      - {fileID: 2800000, guid: 6f3a720a5483b5c4487bb246bb46e6af, type: 3}
      - {fileID: 2800000, guid: 1c37ecc8304abe64b994e2169250d094, type: 3}
      - {fileID: 2800000, guid: 2d3b2d10bbae60c4db04b2dc653fdff7, type: 3}
      - {fileID: 2800000, guid: 2d145b794260fbb479e0ef4ed44b1cbe, type: 3}
      - {fileID: 2800000, guid: 6b4b9a2b6e0b8af429acfa24f8dbd12d, type: 3}
      - {fileID: 2800000, guid: 40be597a38c06ee4e9eb1fc2d0b2d1a2, type: 3}
      - {fileID: 2800000, guid: e6887330ce6634d43b42d39a53a3d015, type: 3}
    - angles:
      - {fileID: 2800000, guid: d9eedab29a2c7474496f5bdb07aab221, type: 3}
      - {fileID: 2800000, guid: c3ab9acf2baa1134facddd6d859b9ff3, type: 3}
      - {fileID: 2800000, guid: 3455e46ed60e48949a4dfe3b1c02c155, type: 3}
      - {fileID: 2800000, guid: 749825380d9e205429fccb159341a668, type: 3}
      - {fileID: 2800000, guid: 4c5ee0f9a5e8c1e41aa37060b2646571, type: 3}
      - {fileID: 2800000, guid: 18b75f2b35e9c00499ae80a6e9314452, type: 3}
      - {fileID: 2800000, guid: 9725332557f81944dae6a6819c6add73, type: 3}
      - {fileID: 2800000, guid: 7a28280370b082c44bafb8fc2f73348b, type: 3}
    - angles:
      - {fileID: 2800000, guid: cdcb0d5267028c44595ee6b8981da811, type: 3}
      - {fileID: 2800000, guid: 2e9b7f2d353cf194f98d5b53164cc73f, type: 3}
      - {fileID: 2800000, guid: 0477e2a5915f36549a0d26044768583a, type: 3}
      - {fileID: 2800000, guid: f9beb66df35bd8242bfb92d8c2fa6116, type: 3}
      - {fileID: 2800000, guid: 91dc3fe2f99c7c9469216d7fbe8c4bc2, type: 3}
      - {fileID: 2800000, guid: aa474921e95a1ce4d99d8dcf5cf6dfd1, type: 3}
      - {fileID: 2800000, guid: 4262c2fe53244454388bd8c124168ec7, type: 3}
      - {fileID: 2800000, guid: f900e30fef3cb5e40bc84bc518869068, type: 3}
    - angles:
      - {fileID: 2800000, guid: 42d038d3c81a22146a79c4fcad1f7931, type: 3}
      - {fileID: 2800000, guid: acc0bf9778934fb4d883498c21ee3ef1, type: 3}
      - {fileID: 2800000, guid: 2d98517afe2ea934dae993791b02202b, type: 3}
      - {fileID: 2800000, guid: 68a18b5427800c643b4cc4bed0d9e0df, type: 3}
      - {fileID: 2800000, guid: f1c8c243670e31a4e9ddacee51414b0e, type: 3}
      - {fileID: 2800000, guid: 4e6a0ffae9e071c4a91b75361aa583ed, type: 3}
      - {fileID: 2800000, guid: 35e459a24b513474d8b565116fcd7698, type: 3}
      - {fileID: 2800000, guid: 46ceed9fe5826af4cb0db1d59ef4512b, type: 3}
    - angles:
      - {fileID: 2800000, guid: 8fd5490abbd01504a8e38a6d1d3ea74f, type: 3}
      - {fileID: 2800000, guid: e0e29fca0eabed04dbd4329b45e32102, type: 3}
      - {fileID: 2800000, guid: 9fa5d5d9b6036ee45b6f9b83f44999aa, type: 3}
      - {fileID: 2800000, guid: f8cf67cccc24c954db0cf5f621200e15, type: 3}
      - {fileID: 2800000, guid: 867701e4b7065314694092c8d806b571, type: 3}
      - {fileID: 2800000, guid: e0348f4522e0725499142ec23c49c55a, type: 3}
      - {fileID: 2800000, guid: 52744e2a882c12a42802807f918eff44, type: 3}
      - {fileID: 2800000, guid: 548b67f82a956144bae9898a470fcb15, type: 3}
    - angles:
      - {fileID: 2800000, guid: 1157d37ceb80c2b42b347b7b7aa2fde3, type: 3}
      - {fileID: 2800000, guid: a6a0dada81f93754283e280a089371d3, type: 3}
      - {fileID: 2800000, guid: 59c5230da02748a49a8fd50392deba31, type: 3}
      - {fileID: 2800000, guid: 4ca52d1b0a475864e8e7564d831c7dbc, type: 3}
      - {fileID: 2800000, guid: 8065d8950bed0974c8a99262e264ea3c, type: 3}
      - {fileID: 2800000, guid: 0f2c1079c60102b4db15b4b3ba0eb571, type: 3}
      - {fileID: 2800000, guid: cdff64f89430ddf4e846a2652591514d, type: 3}
      - {fileID: 2800000, guid: 8d8a586916a89074fb65b537db99d5a2, type: 3}
    goToAnim_destination: 
    animType: 0
    playbackRate: 20
    frameIndex: 0
    nextFrameTimer: 0
    angleIndex: 0
  renderCol: {r: 1, g: 1, b: 1, a: 1}
  renderCol_orig: {r: 0, g: 0, b: 0, a: 0}
--- !u!120 &3619230435344200324
LineRenderer:
  m_ObjectHideFlags: 0
  m_CorrespondingSourceObject: {fileID: 0}
  m_PrefabInstance: {fileID: 0}
  m_PrefabAsset: {fileID: 0}
  m_GameObject: {fileID: 6810942964149555663}
  m_Enabled: 0
  m_CastShadows: 0
  m_ReceiveShadows: 0
  m_DynamicOccludee: 1
  m_MotionVectors: 0
  m_LightProbeUsage: 0
  m_ReflectionProbeUsage: 0
  m_RayTracingMode: 0
  m_RayTraceProcedural: 0
  m_RenderingLayerMask: 1
  m_RendererPriority: 0
  m_Materials:
  - {fileID: 10306, guid: 0000000000000000f000000000000000, type: 0}
  m_StaticBatchInfo:
    firstSubMesh: 0
    subMeshCount: 0
  m_StaticBatchRoot: {fileID: 0}
  m_ProbeAnchor: {fileID: 0}
  m_LightProbeVolumeOverride: {fileID: 0}
  m_ScaleInLightmap: 1
  m_ReceiveGI: 1
  m_PreserveUVs: 0
  m_IgnoreNormalsForChartDetection: 0
  m_ImportantGI: 0
  m_StitchLightmapSeams: 1
  m_SelectedEditorRenderState: 3
  m_MinimumChartSize: 4
  m_AutoUVMaxDistance: 0.5
  m_AutoUVMaxAngle: 89
  m_LightmapParameters: {fileID: 0}
  m_SortingLayerID: 0
  m_SortingLayer: 0
  m_SortingOrder: 0
  m_Positions:
  - {x: 0, y: 0, z: 0}
  - {x: 0, y: 0, z: 0}
  m_Parameters:
    serializedVersion: 3
    widthMultiplier: 1
    widthCurve:
      serializedVersion: 2
      m_Curve:
      - serializedVersion: 3
        time: 0
        value: 0.075701594
        inSlope: 0
        outSlope: 0
        tangentMode: 0
        weightedMode: 0
        inWeight: 0.33333334
        outWeight: 0.33333334
      m_PreInfinity: 2
      m_PostInfinity: 2
      m_RotationOrder: 4
    colorGradient:
      serializedVersion: 2
      key0: {r: 1, g: 1, b: 1, a: 1}
      key1: {r: 1, g: 1, b: 1, a: 1}
      key2: {r: 0, g: 0, b: 0, a: 0}
      key3: {r: 0, g: 0, b: 0, a: 0}
      key4: {r: 0, g: 0, b: 0, a: 0}
      key5: {r: 0, g: 0, b: 0, a: 0}
      key6: {r: 0, g: 0, b: 0, a: 0}
      key7: {r: 0, g: 0, b: 0, a: 0}
      ctime0: 0
      ctime1: 65535
      ctime2: 0
      ctime3: 0
      ctime4: 0
      ctime5: 0
      ctime6: 0
      ctime7: 0
      atime0: 0
      atime1: 65535
      atime2: 0
      atime3: 0
      atime4: 0
      atime5: 0
      atime6: 0
      atime7: 0
      m_Mode: 0
      m_NumColorKeys: 2
      m_NumAlphaKeys: 2
    numCornerVertices: 0
    numCapVertices: 0
    alignment: 0
    textureMode: 0
    shadowBias: 0.5
    generateLightingData: 0
  m_UseWorldSpace: 1
  m_Loop: 0
--- !u!114 &-600296854459182213
MonoBehaviour:
  m_ObjectHideFlags: 0
  m_CorrespondingSourceObject: {fileID: 0}
  m_PrefabInstance: {fileID: 0}
  m_PrefabAsset: {fileID: 0}
  m_GameObject: {fileID: 6810942964149555663}
  m_Enabled: 1
  m_EditorHideFlags: 0
  m_Script: {fileID: 11500000, guid: 6c9b6d7512d080441a41e9d1834283a9, type: 3}
  m_Name: 
  m_EditorClassIdentifier: 
  health_max: 80
  health_current: 0
  invulnerable: 0
  awarenessRadius: 3
  damage: 0
  iconScr: {fileID: 0}
  upgrades:
  - cost: 200
    optionalParameter1: 1.25
    optionalParameter2: 0
  - cost: 300
    optionalParameter1: 1.5
    optionalParameter2: 0
  - cost: 400
    optionalParameter1: 2
    optionalParameter2: 0
  upgradeLevel: 0
  attackRate: 0.5
  buildingProgress: 0
  timeTakenToBuild: 1
  cost: 150
  healPerAttackExecute: 1
  healCol: {r: 0.12577319, g: 1, b: 0, a: 1}
  selfHealBaseMutliple: 0.15
