%YAML 1.1
%TAG !u! tag:unity3d.com,2011:
--- !u!1 &6291648968464513006
GameObject:
  m_ObjectHideFlags: 0
  m_CorrespondingSourceObject: {fileID: 0}
  m_PrefabInstance: {fileID: 0}
  m_PrefabAsset: {fileID: 0}
  serializedVersion: 6
  m_Component:
  - component: {fileID: 2271125456963820336}
  - component: {fileID: 2505025993362507951}
  m_Layer: 0
  m_Name: soundEffect_slimeWalk
  m_TagString: Untagged
  m_Icon: {fileID: 0}
  m_NavMeshLayer: 0
  m_StaticEditorFlags: 0
  m_IsActive: 1
--- !u!4 &2271125456963820336
Transform:
  m_ObjectHideFlags: 0
  m_CorrespondingSourceObject: {fileID: 0}
  m_PrefabInstance: {fileID: 0}
  m_PrefabAsset: {fileID: 0}
  m_GameObject: {fileID: 6291648968464513006}
  m_LocalRotation: {x: 0, y: 0, z: 0, w: 1}
  m_LocalPosition: {x: -3.813799, y: 3.8098125, z: -1.4240618}
  m_LocalScale: {x: 1, y: 1, z: 1}
  m_Children: []
  m_Father: {fileID: 0}
  m_RootOrder: 0
  m_LocalEulerAnglesHint: {x: 0, y: 0, z: 0}
--- !u!114 &2505025993362507951
MonoBehaviour:
  m_ObjectHideFlags: 0
  m_CorrespondingSourceObject: {fileID: 0}
  m_PrefabInstance: {fileID: 0}
  m_PrefabAsset: {fileID: 0}
  m_GameObject: {fileID: 6291648968464513006}
  m_Enabled: 1
  m_EditorHideFlags: 0
  m_Script: {fileID: 11500000, guid: 79b4a6c4c65292b4b8caebea24c72a53, type: 3}
  m_Name: 
  m_EditorClassIdentifier: 
  allSoundEffects:
  - {fileID: 8300000, guid: f28a3b360804d9d47bffbb579d0107d3, type: 3}
  pitchRangePercent: {x: 85, y: 110}
  loopMode: 2
  spatial: 1
  spatialRadius: 8.5
  ownerObj: {fileID: 0}
